%YAML 1.1
%TAG !u! tag:unity3d.com,2011:
--- !u!114 &11400000
MonoBehaviour:
  m_ObjectHideFlags: 0
  m_CorrespondingSourceObject: {fileID: 0}
  m_PrefabInstance: {fileID: 0}
  m_PrefabAsset: {fileID: 0}
  m_GameObject: {fileID: 0}
  m_Enabled: 1
  m_EditorHideFlags: 0
  m_Script: {fileID: 11500000, guid: 468a46d0ae32c3544b7d98094e6448a9, type: 3}
  m_Name: AddressableAssetSettings
  m_EditorClassIdentifier: 
  m_DefaultGroup: b84c8d553458f7446acae6269ef7736c
  m_OptimizeCatalogSize: 0
  m_BuildRemoteCatalog: 0
  m_BundleLocalCatalog: 0
  m_DisableCatalogUpdateOnStart: 0
  m_UniqueBundleIds: 0
  m_maxConcurrentWebRequests: 500
  m_ContiguousBundles: 0
  m_RemoteCatalogBuildPath:
    m_Id: 
  m_RemoteCatalogLoadPath:
    m_Id: 
  m_overridePlayerVersion: 
  m_GroupAssets:
  - {fileID: 11400000, guid: fb366f8ad880c624f985f55dce50e66c, type: 2}
  - {fileID: 11400000, guid: f00ba54af3e840640886bac8133574c2, type: 2}
  - {fileID: 11400000, guid: e22dfc89eae050d49a6e2f3978e32680, type: 2}
  - {fileID: 11400000, guid: 6cbee07ad5c222649be6f5cd844d43da, type: 2}
  - {fileID: 11400000, guid: 18d03a8dfb3c79b40b95fd55f85ffff1, type: 2}
  m_BuildSettings:
    m_CompileScriptsInVirtualMode: 0
    m_CleanupStreamingAssetsAfterBuilds: 1
    m_LogResourceManagerExceptions: 1
    m_BundleBuildPath: Temp/com.unity.addressables/AssetBundles
  m_ProfileSettings:
    m_Profiles:
    - m_InheritedParent: 
      m_Id: 03100dce7b2face4681b832c0c363c3f
      m_ProfileName: Default
      m_Values:
      - m_Id: 5d414aa6029d1d54ea60a4976c09d601
        m_Value: '[UnityEditor.EditorUserBuildSettings.activeBuildTarget]'
      - m_Id: 77579a6a56936064489f4601971af1fb
        m_Value: '[UnityEngine.AddressableAssets.Addressables.BuildPath]/[BuildTarget]'
      - m_Id: ed8e4a082aabe6a4bbdb58aba6567399
        m_Value: '{UnityEngine.AddressableAssets.Addressables.RuntimePath}/[BuildTarget]'
      - m_Id: a80ff930e2dcdaa4c8b10c3da3f9c07c
        m_Value: ServerData/[BuildTarget]
      - m_Id: 102a91c1354b3c243b4a2f12a073ec25
        m_Value: http://localhost/[BuildTarget]
    m_ProfileEntryNames:
    - m_Id: 5d414aa6029d1d54ea60a4976c09d601
      m_Name: BuildTarget
      m_InlineUsage: 0
    - m_Id: 77579a6a56936064489f4601971af1fb
      m_Name: LocalBuildPath
      m_InlineUsage: 0
    - m_Id: ed8e4a082aabe6a4bbdb58aba6567399
      m_Name: LocalLoadPath
      m_InlineUsage: 0
    - m_Id: a80ff930e2dcdaa4c8b10c3da3f9c07c
      m_Name: RemoteBuildPath
      m_InlineUsage: 0
    - m_Id: 102a91c1354b3c243b4a2f12a073ec25
      m_Name: RemoteLoadPath
      m_InlineUsage: 0
    m_ProfileVersion: 1
  m_LabelTable:
    m_LabelNames:
    - default
    - Locale
    - Locale-en
    - Locale-zh
    - Locale-nl
    - Locale-fr
    - Locale-de
    - Locale-hi
    - Locale-it
    - Locale-ja
    - Locale-ko
    - Locale-pt
    - Locale-ru
    - Locale-es
    - Locale-ta-IN
    - Locale-te-IN
  m_SchemaTemplates: []
  m_GroupTemplateObjects:
  - {fileID: 11400000, guid: 9a0e32dc28c5a574baf3dfc12b3c6c5c, type: 2}
  m_InitializationObjects: []
  m_CertificateHandlerType:
    m_AssemblyName: 
    m_ClassName: 
  m_ActivePlayerDataBuilderIndex: 3
  m_DataBuilders:
  - {fileID: 11400000, guid: de523b735b1bd734c8e95b1b42e9dbbf, type: 2}
  - {fileID: 11400000, guid: f951c4817dc06d04f87456128cec2a90, type: 2}
  - {fileID: 11400000, guid: e1e64bf1fc3138940be1d32ed5e76a4a, type: 2}
  - {fileID: 11400000, guid: 0f2e0d870f717bc45839a5d41d267418, type: 2}
  m_ActiveProfileId: 03100dce7b2face4681b832c0c363c3f
  m_HostingServicesManager:
    m_HostingServiceInfos: []
    m_Settings: {fileID: 11400000}
    m_NextInstanceId: 0
    m_RegisteredServiceTypeRefs: []
